<?xml version="1.0" encoding="UTF-8" standalone="no"?>
<svg
   xmlns:dc="http://purl.org/dc/elements/1.1/"
   xmlns:cc="http://creativecommons.org/ns#"
   xmlns:rdf="http://www.w3.org/1999/02/22-rdf-syntax-ns#"
   xmlns:svg="http://www.w3.org/2000/svg"
   xmlns="http://www.w3.org/2000/svg"
   id="svg33"
   viewBox="0 0 143 144.80733"
   style="clip-rule:evenodd;fill-rule:evenodd;image-rendering:optimizeQuality;shape-rendering:geometricPrecision;text-rendering:geometricPrecision"
   version="1.1"
   height="1.1392741in"
   width="1.12356in"
   xml:space="preserve"><metadata
   id="metadata37"><rdf:RDF><cc:Work
       rdf:about=""><dc:format>image/svg+xml</dc:format><dc:type
         rdf:resource="http://purl.org/dc/dcmitype/StillImage" /></cc:Work></rdf:RDF></metadata>
 <defs
   id="defs4">
  <style
   id="style2"
   type="text/css">
   <![CDATA[
    .fil1 {fill:#373435}
    .fil2 {fill:#373435}
    .fil0 {fill:#ED3237}
   ]]>
  </style>
 </defs>
 <g
   transform="translate(0,-0.0964679)"
   id="Layer_x0020_1">
  <metadata
   id="CorelCorpID_0Corel-Layer" />
  <g
   id="_654574960">
   <path
   style="fill:#ed3237"
   id="path7"
   d="m 23,20 h 23 c 0,0 12,15 24,30 H 48 Z"
   class="fil0" />
   <path
   style="fill:#373435"
   id="path9"
   d="M 125,0 69,72 c 0,0 -1,1 -2,1 -1,0 -3,-1 -3,-1 L 23,20 c 0,0 17,19 22,22 5,3 16,11 28,-5 C 86,20 102,0 102,0 Z"
   class="fil1" />
   <path
   style="fill:#373435"
   id="path11"
   d="m 4,141 h 9 c 3,0 5,-1 6,-2 1,-1 2,-4 2,-7 0,-2 -1,-5 -2,-6 -1,-1 -3,-2 -6,-2 H 4 Z m -4,2 v -21 c 0,-1 0,-1 0,-1 1,-1 1,-1 2,-1 h 9 c 5,0 9,1 11,3 2,2 3,5 3,9 0,5 -1,8 -3,10 -2,2 -6,3 -11,3 H 2 c -1,0 -1,0 -2,-1 0,0 0,0 0,-1 z"
   class="fil2" />
   <path
   style="fill:#373435"
   id="path13"
   d="m 28,143 v -21 c 0,-1 1,-1 1,-1 0,-1 1,-1 1,-1 h 20 c 0,0 1,0 1,1 0,0 0,0 0,1 v 0 c 0,1 0,1 0,1 0,1 -1,1 -1,1 H 33 v 7 h 15 c 0,0 1,0 1,0 0,0 0,1 0,1 v 1 c 0,0 0,0 0,1 0,0 -1,0 -1,0 H 33 v 7 h 17 c 0,0 1,0 1,0 0,1 0,1 0,2 v 0 c 0,1 0,1 0,1 0,1 -1,1 -1,1 H 30 c 0,0 -1,0 -1,-1 0,0 -1,0 -1,-1 z"
   class="fil2" />
   <path
   style="fill:#373435"
   id="path15"
   d="m 53,138 c 0,0 0,-1 0,-1 1,0 1,0 1,0 h 1 c 1,0 2,1 3,2 0,1 3,2 4,2 h 8 c 2,0 4,-1 4,-3 0,-2 -2,-3 -4,-3 -1,0 -12,-3 -13,-3 -1,-1 -2,-1 -3,-2 -1,-1 -1,-2 -1,-3 0,-3 1,-4 2,-5 2,-1 5,-2 9,-2 h 4 c 2,0 5,1 6,2 2,1 3,2 3,3 0,1 -1,2 -1,2 0,0 -1,0 -1,0 h -2 c -1,0 -1,0 -2,-1 0,-2 -2,-2 -3,-2 h -7 c -2,0 -4,1 -4,2 0,1 2,2 3,3 1,0 9,2 11,2 2,1 4,1 5,2 1,2 2,3 2,5 0,2 -1,4 -3,5 -1,1 -4,2 -8,2 h -5 c -2,0 -5,-1 -6,-2 -2,-1 -3,-3 -3,-5 z"
   class="fil2" />
   <path
   style="fill:#373435"
   id="path17"
   d="m 81,143 v -21 c 0,-1 0,-1 0,-1 1,-1 1,-1 1,-1 h 1 c 1,0 1,0 2,1 0,0 0,0 0,1 v 21 c 0,1 0,1 0,1 -1,1 -1,1 -2,1 h -1 c 0,0 0,0 -1,-1 0,0 0,0 0,-1 z"
   class="fil2" />
   <path
   style="fill:#373435"
   id="path19"
   d="m 100,145 c -4,0 -7,-1 -9,-3 -2,-2 -3,-5 -3,-10 0,-4 1,-7 3,-9 3,-2 6,-3 10,-3 h 4 c 2,0 5,1 7,2 2,1 3,3 3,4 0,1 0,2 -1,2 0,0 0,0 -1,0 h -1 c -1,0 -2,0 -2,-2 -1,-1 -3,-2 -5,-2 h -4 c -3,0 -5,0 -7,2 -1,1 -1,4 -1,6 0,3 0,5 1,7 1,1 4,2 6,2 h 5 c 2,0 4,0 4,-1 1,-1 2,-3 2,-5 h -6 c 0,0 -1,0 -1,0 0,-1 -1,-1 -1,-1 v -1 c 0,0 1,-1 1,-1 0,0 1,-1 1,-1 h 9 c 0,0 0,1 1,1 0,0 0,1 0,1 v 1 c 0,3 -1,7 -3,8 -2,2 -4,3 -7,3 z"
   class="fil2" />
   <path
   style="fill:#373435"
   id="path21"
   d="m 118,143 v -21 c 0,-1 0,-1 1,-1 0,-1 0,-1 1,-1 h 4 c 0,0 1,0 1,1 1,0 1,0 1,1 l 12,19 v -19 c 0,-1 1,-1 1,-1 0,-1 1,-1 1,-1 h 1 c 0,0 1,0 1,1 1,0 1,0 1,1 v 21 c 0,1 0,1 -1,1 0,1 -1,1 -1,1 h -3 c -1,0 -1,0 -2,-1 0,0 -1,0 -1,-1 l -13,-19 v 19 c 0,1 0,1 0,1 0,1 -1,1 -1,1 h -1 c -1,0 -1,0 -1,-1 -1,0 -1,0 -1,-1 z"
   class="fil2" />
   <path
   style="fill:#373435"
   id="path23"
   d="M 0,112 V 86 c 0,0 0,-1 1,-1 0,0 0,-1 1,-1 h 8 c 1,0 2,1 2,1 0,0 1,1 1,1 l 6,18 6,-18 c 0,0 1,-1 1,-1 1,0 1,-1 2,-1 h 8 c 1,0 1,1 2,1 0,0 0,1 0,1 v 26 c 0,1 0,1 0,2 -1,0 -1,0 -2,0 h -3 c -1,0 -1,0 -2,0 0,-1 0,-1 0,-2 V 92 l -8,20 c 0,1 0,1 -1,2 0,0 -1,0 -1,0 h -3 c -1,0 -1,0 -2,0 0,-1 -1,-1 -1,-2 L 8,92 v 20 c 0,1 0,1 -1,2 0,0 -1,0 -1,0 H 2 c -1,0 -1,0 -1,0 -1,-1 -1,-1 -1,-2 z"
   class="fil2" />
   <path
   style="fill:#373435"
   id="path25"
   d="M 52,101 H 65 V 90 h -6 c -1,0 -2,1 -3,1 -1,1 -2,2 -2,3 z m -11,11 5,-20 c 2,-5 6,-8 14,-8 h 12 c 0,0 0,1 1,1 0,0 0,1 0,1 v 26 c 0,1 0,1 0,2 -1,0 -1,0 -2,0 h -4 c 0,0 -1,0 -1,0 0,-1 -1,-1 -1,-2 v -5 H 51 l -2,5 c 0,1 0,1 -1,2 0,0 -1,0 -1,0 h -4 c -1,0 -1,0 -2,0 0,-1 0,-1 0,-1 0,0 0,-1 0,-1 z"
   class="fil2" />
   <path
   style="fill:#373435"
   id="path27"
   d="m 86,97 h 9 c 1,0 2,0 3,0 1,-1 2,-2 2,-3 0,-1 -1,-2 -2,-3 -1,0 -2,-1 -3,-1 h -9 z m 23,16 c 0,1 -1,1 -1,1 h -5 c -1,0 -1,0 -2,0 -1,-1 -1,-1 -1,-2 l -4,-5 c -1,-3 -3,-4 -5,-4 h -5 v 9 c 0,1 -1,1 -1,2 0,0 -1,0 -1,0 h -4 c -1,0 -1,0 -2,0 0,-1 0,-1 0,-2 V 86 c 0,0 0,-1 0,-1 1,0 1,-1 2,-1 h 17 c 3,0 6,1 8,3 2,2 3,4 3,7 0,4 -3,6 -8,7 1,1 2,1 2,2 1,1 2,2 3,3 l 3,6 c 1,1 1,1 1,1 z"
   class="fil2" />
   <path
   style="fill:#373435"
   id="path29"
   d="m 143,113 c 0,1 -1,1 -1,1 h -5 c -1,0 -1,0 -2,0 -1,-1 -1,-1 -1,-2 l -4,-6 c -1,-1 -2,-2 -3,-3 -1,0 -2,-1 -3,-1 h -4 v 10 c 0,1 -1,1 -1,2 0,0 -1,0 -1,0 h -4 c -1,0 -1,0 -2,0 0,-1 0,-1 0,-2 V 86 c 0,0 0,-1 0,-1 1,-1 1,-1 2,-1 h 4 c 0,0 1,0 1,1 0,0 1,1 1,1 v 10 h 4 c 1,0 2,0 3,-1 1,0 2,-1 3,-3 l 3,-6 c 1,-1 2,-2 3,-2 h 5 c 1,0 1,1 1,1 0,0 0,1 0,1 l -5,9 c -1,1 -1,2 -2,2 -1,1 -2,2 -3,2 1,0 2,1 3,2 1,1 1,2 2,3 l 5,8 c 1,1 1,1 1,1 z"
   class="fil2" />
  </g>
 </g>
</svg>